Actividad1/simulation/qsim/actividad1.msim.vcd
$comment
	File created using the following command:
		vcd file actividad1.msim.vcd -direction
$end
$date
	Tue May 02 19:23:11 2023
$end
$version
	ModelSim Version 10.5b
$end
$timescale
	1ps
$end

$scope module actividad3_vhd_vec_tst $end
$var wire 1 ! ctrl [1] $end
$var wire 1 " ctrl [0] $end
$var wire 1 # x [1] $end
$var wire 1 $ x [0] $end
$var wire 1 % y [1] $end
$var wire 1 & y [0] $end

$scope module i1 $end
$var wire 1 ' gnd $end
$var wire 1 ( vcc $end
$var wire 1 ) unknown $end
$var wire 1 * devoe $end
$var wire 1 + devclrn $end
$var wire 1 , devpor $end
$var wire 1 - ww_devoe $end
$var wire 1 . ww_devclrn $end
$var wire 1 / ww_devpor $end
$var wire 1 0 ww_ctrl [1] $end
$var wire 1 1 ww_ctrl [0] $end
$var wire 1 2 ww_x [1] $end
$var wire 1 3 ww_x [0] $end
$var wire 1 4 ww_y [1] $end
$var wire 1 5 ww_y [0] $end
$var wire 1 6 \y[0]~output_o\ $end
$var wire 1 7 \y[1]~output_o\ $end
$var wire 1 8 \x[1]~input_o\ $end
$var wire 1 9 \ctrl[0]~input_o\ $end
$var wire 1 : \x[0]~input_o\ $end
$var wire 1 ; \y~0_combout\ $end
$var wire 1 < \ctrl[1]~input_o\ $end
$var wire 1 = \Mux0~0_combout\ $end
$upscope $end
$upscope $end
$enddefinitions $end
#0
$dumpvars
0'
1(
x)
1*
1+
1,
1-
1.
1/
16
07
08
09
1:
1;
0<
0=
0!
0"
0#
1$
0%
1&
00
01
02
13
04
15
$end
#40000
1"
11
19
0;
1=
17
06
14
05
0&
1%
#80000
0"
1!
01
10
1<
09
1;
16
15
1&
#120000
1"
11
19
0;
0=
07
06
04
05
0&
0%
#160000
0"
0!
01
00
0<
09
1;
16
15
1&
#200000
1"
11
19
0;
1=
17
06
14
05
0&
1%
#240000
0"
1!
01
10
1<
09
1;
16
15
1&
#280000
1"
11
19
0;
0=
07
06
04
05
0&
0%
#320000
0"
0!
01
00
0<
09
1;
16
15
1&
#360000
1"
11
19
0;
1=
17
06
14
05
0&
1%
#400000
0"
1!
01
10
1<
09
1;
16
15
1&
#440000
1"
11
19
0;
0=
07
06
04
05
0&
0%
#480000
0"
0!
01
00
0<
09
1;
16
15
1&
#520000
1"
11
19
0;
1=
17
06
14
05
0&
1%
#560000
0"
1!
01
10
1<
09
1;
16
15
1&
#600000
1"
11
19
0;
0=
07
06
04
05
0&
0%
#640000
0"
0!
01
00
0<
09
1;
16
15
1&
#680000
1"
11
19
0;
1=
17
06
14
05
0&
1%
#720000
0"
1!
01
10
1<
09
1;
16
15
1&
#760000
1"
11
19
0;
0=
07
06
04
05
0&
0%
#800000
0"
0!
01
00
0<
09
1;
16
15
1&
#840000
1"
11
19
0;
1=
17
06
14
05
0&
1%
#880000
0"
1!
01
10
1<
09
1;
16
15
1&
#920000
1"
11
19
0;
0=
07
06
04
05
0&
0%
#960000
0"
0!
01
00
0<
09
1;
16
15
1&
