Actividad1/simulation/qsim/actividad1.msim.vcd
$comment
	File created using the following command:
		vcd file actividad1.msim.vcd -direction
$end
$date
	Tue May 02 18:01:27 2023
$end
$version
	ModelSim Version 10.5b
$end
$timescale
	1ps
$end

$scope module actividad1_vhd_vec_tst $end
$var wire 1 ! en $end
$var wire 1 " entrada [1] $end
$var wire 1 # entrada [0] $end
$var wire 1 $ salida [3] $end
$var wire 1 % salida [2] $end
$var wire 1 & salida [1] $end
$var wire 1 ' salida [0] $end

$scope module i1 $end
$var wire 1 ( gnd $end
$var wire 1 ) vcc $end
$var wire 1 * unknown $end
$var wire 1 + devoe $end
$var wire 1 , devclrn $end
$var wire 1 - devpor $end
$var wire 1 . ww_devoe $end
$var wire 1 / ww_devclrn $end
$var wire 1 0 ww_devpor $end
$var wire 1 1 ww_en $end
$var wire 1 2 ww_entrada [1] $end
$var wire 1 3 ww_entrada [0] $end
$var wire 1 4 ww_salida [3] $end
$var wire 1 5 ww_salida [2] $end
$var wire 1 6 ww_salida [1] $end
$var wire 1 7 ww_salida [0] $end
$var wire 1 8 \salida[0]~output_o\ $end
$var wire 1 9 \salida[1]~output_o\ $end
$var wire 1 : \salida[2]~output_o\ $end
$var wire 1 ; \salida[3]~output_o\ $end
$var wire 1 < \entrada[0]~input_o\ $end
$var wire 1 = \entrada[1]~input_o\ $end
$var wire 1 > \en~input_o\ $end
$var wire 1 ? \salida~0_combout\ $end
$var wire 1 @ \salida~1_combout\ $end
$var wire 1 A \salida~2_combout\ $end
$var wire 1 B \salida~3_combout\ $end
$upscope $end
$upscope $end
$enddefinitions $end
#0
$dumpvars
1!
0(
1)
x*
1+
1,
1-
1.
1/
10
11
18
09
0:
0;
0<
0=
1>
1?
0@
0A
0B
0"
0#
0$
0%
0&
1'
02
03
04
05
06
17
$end
#40000
1#
13
1<
0?
1@
19
08
16
07
0'
1&
#80000
0#
1"
03
12
1=
0<
0@
1A
1:
09
15
06
0&
1%
#120000
1#
13
1<
0A
1B
1;
0:
14
05
0%
1$
#160000
0#
0"
03
02
0=
0<
1?
0B
0;
18
04
17
1'
0$
#200000
1#
13
1<
0?
1@
19
08
16
07
0'
1&
#240000
0#
1"
03
12
1=
0<
0@
1A
1:
09
15
06
0&
1%
#280000
1#
13
1<
0A
1B
1;
0:
14
05
0%
1$
#320000
0#
0"
0!
03
02
01
0>
0=
0<
0B
0;
04
0$
#360000
1#
13
1<
#400000
0#
1"
03
12
1=
0<
#440000
1#
13
1<
#480000
0#
0"
03
02
0=
0<
#520000
1#
13
1<
#560000
0#
1"
03
12
1=
0<
#600000
1#
13
1<
#640000
0#
0"
03
02
0=
0<
#680000
1#
13
1<
#720000
0#
1"
03
12
1=
0<
#760000
1#
13
1<
#800000
0#
0"
03
02
0=
0<
#840000
1#
13
1<
#880000
0#
1"
03
12
1=
0<
#920000
1#
13
1<
#960000
0#
0"
03
02
0=
0<
